C:\Users\anyja\Documents\university-projects\oop\text-operations-java\src\main\java\cz\impl\PrintOperation.java
C:\Users\anyja\Documents\university-projects\oop\text-operations-java\src\main\java\cz\impl\Application.java
C:\Users\anyja\Documents\university-projects\oop\text-operations-java\src\main\java\cz\impl\ContentModifier.java
C:\Users\anyja\Documents\university-projects\oop\text-operations-java\src\main\java\cz\TerminalOperation.java
C:\Users\anyja\Documents\university-projects\oop\text-operations-java\src\main\java\cz\FileLoader.java
C:\Users\anyja\Documents\university-projects\oop\text-operations-java\src\main\java\cz\cmd\TerminalOperationConverter.java
C:\Users\anyja\Documents\university-projects\oop\text-operations-java\src\main\java\cz\impl\LevenshteinDistance.java
